# Iterations, Execution Time, Compilation Time
1 4.210 4.206
2 6.923 5.826
3 9.670 7.047
4 16.753 9.360
5 19.312 8.849
6 21.918 11.377
7 24.442 11.419
8 27.214 10.611
9 29.432 11.365
10 31.650 11.867
